<?xml version="1.0" encoding="UTF-8" standalone="no"?>
<svg width="26px" height="17px" viewBox="0 0 26 17" version="1.1" xmlns="http://www.w3.org/2000/svg" xmlns:xlink="http://www.w3.org/1999/xlink">
    <!-- Generator: Sketch 41.1 (35376) - http://www.bohemiancoding.com/sketch -->
    <title>icon_hamburger</title>
    <desc>Created with Sketch.</desc>
    <defs></defs>
    <g id="Page-1" stroke="none" stroke-width="1" fill="none" fill-rule="evenodd">
        <g id="Homepage---Mobile" transform="translate(-319.000000, -22.000000)" fill="#FFFFFF">
            <g id="icon_hamburger" transform="translate(319.000000, 22.000000)">
                <rect id="Rectangle-1112" x="0" y="0" width="26" height="3" rx="1.5"></rect>
                <rect id="Rectangle-1112-Copy" x="0" y="7" width="26" height="3" rx="1.5"></rect>
                <rect id="Rectangle-1112-Copy-2" x="0" y="14" width="26" height="3" rx="1.5"></rect>
            </g>
        </g>
    </g>
</svg>